{
  "type": "service_account",
  "project_id": "eatt-live",
  "private_key_id": "59b4b3fe525aee42330bbb57197229d2df259150",
  "private_key": "-----BEGIN PRIVATE KEY-----\nMIIEvgIBADANBgkqhkiG9w0BAQEFAASCBKgwggSkAgEAAoIBAQC1AaY6SCKGZi1O\nZ8GSLHYi/+qZYEVwQDRrTOon24m9hhQL34aQfsRuMl7ANIkqJiOFZ9wZM06/9E+I\nIvoyBk3OZZ3usSQ153NijlktrrgI9qn+rn1lKrBf0lElvhqIdplrFUQVln4lEiy+\nAoH5hX/0TnTTGowEa5PFqYkY4nF928DWJoUclKo0E9L5UMMtd3BxkWMXpQKjvu0S\naKQp4xC7NHqq99H6Zm5IzcUo5xcrpMyw99TA4W7rmbd3kpG8eFshWzCKCQEwrgKE\nqpf/zPiV+HGlzS3JAPhSpEVvMLrImRAqjBXmGhh14lpke+kHMRSPJssYmVvDSl5W\nPxSXRvQvAgMBAAECggEAQYSJUMtPg+p0N88ip/BkCqMrnbzVJZ532ucKUscKgomH\ntAyCvsbD/0dIOLZLd/A6J03Cw3Ro6t5Z82MFwRm7DByIICAKhWBzyZbQ/NIjV0tB\nmSg7x2S+VtDgApNfM0oKmlImRNImcvCzNUvfFByYhivn6YnQaMEvyfpl35YHkpBe\nI+i2EqZBnRZQDzEA6u9mQQm36mQ4JYXf/Am/5vTWmjAeQrzoUVQn01mVgZ9nhhr8\n5fF56jno7DKrMhLbYL+ej10F/VjNKfqLvvIkszdByKZbEko4Uz7hzHH4nfr1AQLF\n0Y8XSl31uaGwpnB2SQ2iILQD3NqrjPwlQwtEzhK1EQKBgQDsfwJCph3CsXUtJzMv\nrL+ZMR4VFNOpcCxx5hWF7U2ECD14Me1+QwyV+Df6Zc36D4u1db2kZtc4S2iEsSad\nIcfjgF2U0fb8bUz791JL2BkZBTePHTpLpGnlaKXiax8m/nE0g1fTzfxh/fgFS7n9\nEOAt1WNJ4Yo/e5ZmR6ltRKBU1QKBgQDD7x9RNgjen/7VEnGp6C9r2Sym9GuTwoS3\nXrmCl3EqNAaF8wRLOz3cSpznwdCaV3JZPqeuxL/0TIog1NE1d2lQgl5PAgGhn1wK\n9eraKKcbVKn3ZcoAJkg9gVasOiO34JrS0mz92oDztGt2Zf4GBLwMwHl9RwvpaXDo\nKKbK2yu28wKBgDbPlOGHiHw4DrVBUY6qFdnWVWeDZS7u7Y4USka44e9IzZ5OzAEo\nXwFe/vJMp/ldov6SZDp3D0hfycB/IjjmvGIQvR+hrgGA/4eiIXOsiNyQpfjISFuB\npn1hzJh2RUkPTYNjMXbIVccMSnBHxbpOL/bPbuyPli/yX8AiubS2ZAZlAoGBALgw\nzgcBPftS+zQAv7uTGylOouxcb9kbDrp3IPvENE0RVWSM3OeATJoPxksUZ28Ab+23\nudjQ+wbFAUD176pMlENsGw44+6GdduCS5/GoL9fAknuRRAE5+8VeFkWX7kYIrmMs\nD+vggkMXw8ItBU1RHBr8wfjkVi1ZwxtsQ8gFm6XDAoGBAN+8g7s2PMan9hg88tSg\nOGq8lM863fVoSr8NoJGXeSXGEFRmdvHDxxE7uGNEWNLO1w0b+UQoqm9eBSpip6ig\nnDllPBbQdFM37jAZOyXJJlt+n1innLpfYkUmOLxERZiaOZC5RFRjydepXTGqy72O\natX8sc1PXwWnQsRmXn38KG59\n-----END PRIVATE KEY-----\n",
  "client_email": "firebase-adminsdk-lqcya@eatt-live.iam.gserviceaccount.com",
  "client_id": "108309561496051086896",
  "auth_uri": "https://accounts.google.com/o/oauth2/auth",
  "token_uri": "https://oauth2.googleapis.com/token",
  "auth_provider_x509_cert_url": "https://www.googleapis.com/oauth2/v1/certs",
  "client_x509_cert_url": "https://www.googleapis.com/robot/v1/metadata/x509/firebase-adminsdk-lqcya%40eatt-live.iam.gserviceaccount.com"

}